{"content":[{"id":8,"dependenciaInfo":{"id":19,"domicilio":null,"nombre":"Seguridad Lógica","tipo":0,"telefono":null,"email":"seglog@pjn.gov.ar","dependencia":"Dirección General de Seguridad Informática","codigoPostal":"1178","fax":null,"cantPersonas":0,"pisoOficinaDepartamento":null},"idParent":6,"nivel":2,"mostrarOrden":0},{"id":9,"dependenciaInfo":{"id":8,"domicilio":null,"nombre":"Depto. Planificación y Proyectos","tipo":0,"telefono":"442-4215","email":"planificacion@pjn.gov.ar","dependencia":"Dirección General de Tecnologia","codigoPostal":"1144","fax":null,"cantPersonas":0,"pisoOficinaDepartamento":null},"idParent":5,"nivel":2,"mostrarOrden":0},{"id":10,"dependenciaInfo":{"id":9,"domicilio":null,"nombre":"Div. Desarrollo de Sistemas","tipo":0,"telefono":"4443-4878","email":"electoral@pjn.gov.ar","dependencia":"Dirección General de Tecnologia","codigoPostal":"4787","fax":"2543-5747","cantPersonas":0,"pisoOficinaDepartamento":null},"idParent":5,"nivel":3,"mostrarOrden":0},{"id":1,"dependenciaInfo":{"id":1,"domicilio":null,"nombre":"Consejo de la Magistratura","tipo":0,"telefono":"-","email":"-","dependencia":"Dirección General de Tecnologia","codigoPostal":"1234","fax":null,"cantPersonas":0,"pisoOficinaDepartamento":null},"idParent":null,"nivel":0,"mostrarOrden":0},{"id":2,"dependenciaInfo":{"id":2,"domicilio":null,"nombre":"Fueros con Competencia en todo el Pais","tipo":0,"telefono":null,"email":null,"dependencia":null,"codigoPostal":null,"fax":null,"cantPersonas":0,"pisoOficinaDepartamento":null},"idParent":null,"nivel":0,"mostrarOrden":0},{"id":3,"dependenciaInfo":{"id":3,"domicilio":null,"nombre":"Fueros Nacionales","tipo":0,"telefono":null,"email":null,"dependencia":null,"codigoPostal":null,"fax":null,"cantPersonas":0,"pisoOficinaDepartamento":null},"idParent":null,"nivel":0,"mostrarOrden":0},{"id":4,"dependenciaInfo":{"id":4,"domicilio":null,"nombre":"Fueros Federales","tipo":0,"telefono":null,"email":null,"dependencia":null,"codigoPostal":null,"fax":null,"cantPersonas":0,"pisoOficinaDepartamento":null},"idParent":null,"nivel":0,"mostrarOrden":0},{"id":5,"dependenciaInfo":{"id":5,"domicilio":null,"nombre":"Dirección General de Tecnologia (DGT)","tipo":0,"telefono":"4601-6062","email":"consejo@pjn.gov.ar","dependencia":"Administración General","codigoPostal":"1178","fax":null,"cantPersonas":0,"pisoOficinaDepartamento":null},"idParent":11,"nivel":1,"mostrarOrden":0},{"id":19,"dependenciaInfo":{"id":20,"domicilio":null,"nombre":"Seguridad Fisica","tipo":0,"telefono":null,"email":"segfis@pjn.gov.ar","dependencia":"Dirección General de Seguridad Informática","codigoPostal":"1178","fax":null,"cantPersonas":0,"pisoOficinaDepartamento":null},"idParent":6,"nivel":2,"mostrarOrden":0},{"id":20,"dependenciaInfo":{"id":21,"domicilio":null,"nombre":"Análisis de Software","tipo":0,"telefono":null,"email":"anasoft@pjn.gov.ar","dependencia":"Dirección General de Seguridad Informática","codigoPostal":"1178","fax":null,"cantPersonas":0,"pisoOficinaDepartamento":null},"idParent":6,"nivel":2,"mostrarOrden":0},{"id":21,"dependenciaInfo":{"id":22,"domicilio":null,"nombre":"Operaciones","tipo":0,"telefono":null,"email":"oper@pjn.gov.ar","dependencia":"Dirección General de Seguridad Informática","codigoPostal":"1178","fax":null,"cantPersonas":0,"pisoOficinaDepartamento":null},"idParent":6,"nivel":2,"mostrarOrden":0},{"id":7,"dependenciaInfo":{"id":7,"domicilio":null,"nombre":"Depto. Organización y Sistemas","tipo":0,"telefono":"4442-45824","email":"organizacion@pjn.gov.ar","dependencia":"Dirección General de Tecnologia","codigoPostal":"1178","fax":"4558-5475","cantPersonas":5,"pisoOficinaDepartamento":null},"idParent":5,"nivel":2,"mostrarOrden":0},{"id":11,"dependenciaInfo":{"id":10,"domicilio":null,"nombre":"Administración General","tipo":0,"telefono":null,"email":"admgral@pjn.gov.ar","dependencia":null,"codigoPostal":"1234","fax":null,"cantPersonas":0,"pisoOficinaDepartamento":null},"idParent":null,"nivel":0,"mostrarOrden":0},{"id":12,"dependenciaInfo":{"id":11,"domicilio":null,"nombre":"Subadministración General","tipo":0,"telefono":null,"email":"subadmgral@pjn.gov.ar","dependencia":"Administración General","codigoPostal":"5678","fax":null,"cantPersonas":0,"pisoOficinaDepartamento":null},"idParent":11,"nivel":1,"mostrarOrden":0},{"id":13,"dependenciaInfo":{"id":12,"domicilio":null,"nombre":"Subdirección de Despacho","tipo":0,"telefono":null,"email":"subdirdes@pjn.gov.ar","dependencia":"Administración General","codigoPostal":"9876","fax":null,"cantPersonas":0,"pisoOficinaDepartamento":null},"idParent":11,"nivel":1,"mostrarOrden":0},{"id":14,"dependenciaInfo":{"id":13,"domicilio":null,"nombre":"Dirección General de Administración Financiera (DAF)","tipo":0,"telefono":null,"email":"dgaf@pjn.gov.ar","dependencia":"Administración General","codigoPostal":"5432","fax":null,"cantPersonas":0,"pisoOficinaDepartamento":null},"idParent":11,"nivel":1,"mostrarOrden":0},{"id":15,"dependenciaInfo":{"id":14,"domicilio":null,"nombre":"Dirección General de Recursos Humanos","tipo":0,"telefono":null,"email":"dgrh@pjn.gov.ar","dependencia":"Administración General","codigoPostal":"1235","fax":null,"cantPersonas":0,"pisoOficinaDepartamento":null},"idParent":11,"nivel":1,"mostrarOrden":0},{"id":16,"dependenciaInfo":{"id":15,"domicilio":null,"nombre":"Dirección General de Infraestructura Judicial (DIJ)","tipo":0,"telefono":null,"email":"dij@pjn.gov.ar","dependencia":"Administración General","codigoPostal":"4568","fax":null,"cantPersonas":0,"pisoOficinaDepartamento":null},"idParent":11,"nivel":1,"mostrarOrden":0},{"id":17,"dependenciaInfo":{"id":16,"domicilio":null,"nombre":"Dirección General de Planeamiento","tipo":0,"telefono":null,"email":"dgp@pjn.gov.ar","dependencia":"Administración General","codigoPostal":"7531","fax":null,"cantPersonas":0,"pisoOficinaDepartamento":null},"idParent":11,"nivel":1,"mostrarOrden":0},{"id":18,"dependenciaInfo":{"id":17,"domicilio":null,"nombre":"Secretaria de Asuntos Juridicos","tipo":0,"telefono":null,"email":"uai@pjn.gov.ar","dependencia":"Administración General","codigoPostal":"9874","fax":null,"cantPersonas":0,"pisoOficinaDepartamento":null},"idParent":11,"nivel":1,"mostrarOrden":0}],"last":false,"totalElements":21,"totalPages":2,"size":20,"number":0,"sort":null,"first":true,"numberOfElements":20}